module github.com/edgexfoundry/go-mod-messaging

require (
	github.com/eclipse/paho.mqtt.golang v1.2.0
	github.com/go-redis/redis/v7 v7.2.0
	github.com/pebbe/zmq4 v1.2.2
	github.com/stretchr/testify v1.7.0
	go.opentelemetry.io/otel v0.19.0
	golang.org/x/net v0.0.0-20191209160850-c0dbc17a3553 // indirect
)

go 1.15
